Version 4
SHEET 1 1128 680
WIRE 416 256 416 160
WIRE 16 272 16 224
WIRE 144 272 144 224
WIRE 464 304 416 304
WIRE 368 336 320 336
WIRE 416 368 416 352
WIRE 464 368 464 304
WIRE 464 368 416 368
WIRE 16 384 16 352
WIRE 144 384 144 352
WIRE 416 384 416 368
FLAG 16 384 0
FLAG 416 384 0
FLAG 16 224 VDD
FLAG 416 160 VDD
FLAG 320 336 VGS
FLAG 144 384 0
FLAG 144 224 VGS
SYMBOL voltage 16 256 R0
SYMATTR InstName VDD
SYMATTR Value 2V
SYMBOL nmos4 368 256 R0
SYMATTR InstName M1
SYMATTR Value nch
SYMATTR Value2 l=180n w=5u m=10
SYMBOL voltage 144 256 R0
SYMATTR InstName VGS
SYMATTR Value 806.7mV
TEXT 112 512 Left 2 !.lib 'mos018.l' TT
TEXT 112 480 Left 2 !.dc VGS 0 3.3 1m
TEXT 112 448 Left 2 !.op
